2019-09-23T02:56:48+00:00 INFO Regenerating images for attachment ID: 475
2019-09-23T02:56:50+00:00 INFO Regenerating images for attachment ID: 435
2019-09-23T02:56:51+00:00 INFO Regenerating images for attachment ID: 434
2019-09-23T02:56:52+00:00 INFO Regenerating images for attachment ID: 432
2019-09-23T02:56:53+00:00 INFO Regenerating images for attachment ID: 379
2019-09-23T02:56:54+00:00 INFO Regenerating images for attachment ID: 316
2019-09-23T02:56:56+00:00 INFO Regenerating images for attachment ID: 313
2019-09-23T02:56:58+00:00 INFO Regenerating images for attachment ID: 284
2019-09-23T02:56:59+00:00 INFO Regenerating images for attachment ID: 267
2019-09-23T02:57:00+00:00 INFO Regenerating images for attachment ID: 249
2019-09-23T02:57:01+00:00 INFO Regenerating images for attachment ID: 248
2019-09-23T02:57:02+00:00 INFO Regenerating images for attachment ID: 247
2019-09-23T02:57:03+00:00 INFO Regenerating images for attachment ID: 218
2019-09-23T02:57:04+00:00 INFO Regenerating images for attachment ID: 216
2019-09-23T02:57:06+00:00 INFO Regenerating images for attachment ID: 180
2019-09-23T02:57:07+00:00 INFO Regenerating images for attachment ID: 108
2019-09-23T02:57:08+00:00 INFO Regenerating images for attachment ID: 104
2019-09-23T02:57:09+00:00 INFO Regenerating images for attachment ID: 99
2019-09-23T02:57:11+00:00 INFO Regenerating images for attachment ID: 96
2019-09-23T02:57:12+00:00 INFO Regenerating images for attachment ID: 67
2019-09-23T02:57:13+00:00 INFO Regenerating images for attachment ID: 65
2019-09-23T02:57:14+00:00 INFO Regenerating images for attachment ID: 62
2019-09-23T02:57:15+00:00 INFO Regenerating images for attachment ID: 59
2019-09-23T02:57:16+00:00 INFO Regenerating images for attachment ID: 56
2019-09-23T02:57:17+00:00 INFO Regenerating images for attachment ID: 53
2019-09-23T02:57:18+00:00 INFO Regenerating images for attachment ID: 50
2019-09-23T02:57:19+00:00 INFO Regenerating images for attachment ID: 48
2019-09-23T02:57:21+00:00 INFO Regenerating images for attachment ID: 47
